6 Data Wrangling with dplyr – R Cheatsheets
…
To select columns of a dataframe, use select(). The first argument to this function is the dataframe (interviews), and the subsequent arguments are the columns to keep, separated by commas. Alternatively, if you are selecting columns adjacent to each other, you can use a : to select a range of columns, read as “select columns from ___ to ___.” You may have done something similar in the past using subsetting. select() is essentially doing the same thing as subsetting, using a package (dplyr) instead of R’s base functions.

# to select columns throughout the dataframe
select(interviews, village, no_membrs, months_lack_food)
# to do the same thing with subsetting
interviews[c("village","no_membrs","months_lack_food")]
# to select a series of connected columns
select(interviews, village:respondent_wall_type)

To choose rows based on specific criteria, we can use the filter() function. The argument after the dataframe is the condition we want our final dataframe to adhere to (e.g. village name is Chirodzo):

# filters observations where village name is "Chirodzo"
filter(interviews, village == "Chirodzo")

# A tibble: 39 × 14
   key_ID village  interview_date      no_membrs years_liv respondent_wall_type
    <dbl> <chr>    <dttm>                  <dbl>     <dbl> <chr>               
 1      8 Chirodzo 2016-11-16 00:00:00        12        70 burntbricks         
 2      9 Chirodzo 2016-11-16 00:00:00         8         6 burntbricks         
 3     10 Chirodzo 2016-12-16 00:00:00        12        23 burntbricks         
 4     34 Chirodzo 2016-11-17 00:00:00         8        18 burntbricks         
 5     35 Chirodzo 2016-11-17 00:00:00         5        45 muddaub             
 6     36 Chirodzo 2016-11-17 00:00:00         6        23 sunbricks           
 7     37 Chirodzo 2016-11-17 00:00:00         3         8 burntbricks         
 8     43 Chirodzo 2016-11-17 00:00:00         7        29 muddaub             
 9     44 Chirodzo 2016-11-17 00:00:00         2         6 muddaub             
10     45 Chirodzo 2016-11-17 00:00:00         9         7 muddaub             
# ℹ 29 more rows
# ℹ 8 more variables: rooms <dbl>, memb_assoc <chr>, affect_conflicts <chr>,
#   liv_count <dbl>, items_owned <chr>, no_meals <dbl>, months_lack_food <chr>,
#   instanceID <chr>
…
In an “or” statement, observations must meet at least one of the specified conditions. To form “or” statements we use the logical operator for “or,” which is the vertical bar (|):

# filters observations with "|" logical operator
# output dataframe satisfies AT LEAST ONE of the specified conditions
filter(interviews, village == "Chirodzo" | village == "Ruaca")

# A tibble: 88 × 14
   key_ID village  interview_date      no_membrs years_liv respondent_wall_type
    <dbl> <chr>    <dttm>                  <dbl>     <dbl> <chr>               
 1      8 Chirodzo 2016-11-16 00:00:00        12        70 burntbricks         
 2      9 Chirodzo 2016-11-16 00:00:00         8         6 burntbricks         
 3     10 Chirodzo 2016-12-16 00:00:00        12        23 burntbricks         
 4     23 Ruaca    2016-11-21 00:00:00        10        20 burntbricks         
 5     24 Ruaca    2016-11-21 00:00:00         6         4 burntbricks         
 6     25 Ruaca    2016-11-21 00:00:00        11         6 burntbricks         
 7     26 Ruaca    2016-11-21 00:00:00         3        20 burntbricks         
 8     27 Ruaca    2016-11-21 00:00:00         7        36 burntbricks         
 9     28 Ruaca    2016-11-21 00:00:00         2         2 muddaub             
10     29 Ruaca    2016-11-21 00:00:00         7        10 burntbricks         
# ℹ 78 more rows
# ℹ 8 more variables: rooms <dbl>, memb_assoc <chr>, affect_conflicts <chr>,
#   liv_count <dbl>, items_owned <chr>, no_meals <dbl>, months_lack_food <chr>,
#   instanceID <chr>
…
interviews_ch <- select(filter(interviews, village == "Chirodzo"),
                         village:respondent_wall_type)

This is handy, but can be difficult to read if too many functions are nested, as R evaluates the expression from the inside out (in this case, filtering, then selecting).

The last option, pipes, are a recent addition to R. Pipes let you take the output of one function and send it directly to the next, which is useful when you need to do many things to the same dataset. There are two Pipes in R: 1) %>% (called magrittr pipe; made available via the magrittr package, installed automatically with dplyr) or 2) |> (called native R pipe and it comes preinstalled with R v4.1.0 onwards). Both the pipes are, by and large, function similarly with a few differences (For more information, check: https://www.tidyverse.org/blog/2023/04/base-vs-magrittr-pipe/). The choice of which pipe to be used can be changed in the Global settings in R studio and once that is done, you can type the pipe with:

Ctrl + Shift + M if you have a PC or Cmd + Shift + M if you have a Mac.

# the following example is run using magrittr pipe but the output will be same with the native pipe
interviews %>%
    filter(village == "Chirodzo") %>%
    select(village:respondent_wall_type)

# A tibble: 39 × 5
   village  interview_date      no_membrs years_liv respondent_wall_type
   <chr>    <dttm>                  <dbl>     <dbl> <chr>               
 1 Chirodzo 2016-11-16 00:00:00        12        70 burntbricks         
 2 Chirodzo 2016-11-16 00:00:00         8         6 burntbricks         
 3 Chirodzo 2016-12-16 00:00:00        12        23 burntbricks         
 4 Chirodzo 2016-11-17 00:00:00         8        18 burntbricks         
 5 Chirodzo 2016-11-17 00:00:00         5        45 muddaub             
 6 Chirodzo 2016-11-17 00:00:00         6        23 sunbricks           
 7 Chirodzo 2016-11-17 00:00:00         3         8 burntbricks         
 8 Chirodzo 2016-11-17 00:00:00         7        29 muddaub             
 9 Chirodzo 2016-11-17 00:00:00         2         6 muddaub             
10 Chirodzo 2016-11-17 00:00:00         9         7 muddaub             
# ℹ 29 more rows
…
In the above code, we use the pipe to send the interviews dataset first through filter() to keep rows where village is “Chirodzo”, then through select() to keep only the columns from village to respondent_wall_type. Since %>% takes the object on its left and passes it as the first argument to the function on its right, we don’t need to explicitly include the dataframe as an argument to the filter() and select() functions any more.

Some may find it helpful to read the pipe like the word “then”. For instance, in the above example, we take the dataframe interviews, then we filter for rows with village == "Chirodzo", then we select columns village:respondent_wall_type. The dplyr functions by themselves are somewhat simple, but by combining them into linear workflows with the pipe, we can accomplish more complex data wrangling operations.

If we want to create a new object with this smaller version of the data, we can assign it a new name:

interviews_ch <- interviews %>%
    filter(village == "Chirodzo") %>%
    select(village:respondent_wall_type)

interviews_ch

# A tibble: 39 × 5
   village  interview_date      no_membrs years_liv respondent_wall_type
   <chr>    <dttm>                  <dbl>     <dbl> <chr>               
 1 Chirodzo 2016-11-16 00:00:00        12        70 burntbricks         
 2 Chirodzo 2016-11-16 00:00:00         8         6 burntbricks         
 3 Chirodzo 2016-12-16 00:00:00        12        23 burntbricks         
 4 Chirodzo 2016-11-17 00:00:00         8        18 burntbricks         
 5 Chirodzo 2016-11-17 00:00:00         5        45 muddaub             
 6 Chirodzo 2016-11-17 00:00:00         6        23 sunbricks           
 7 Chirodzo 2016-11-17 00:00:00         3         8 burntbricks         
 8 Chirodzo 2016-11-17 00:00:00         7        29 muddaub             
 9 Chirodzo 2016-11-17 00:00:00         2         6 muddaub             
10 Chirodzo 2016-11-17 00:00:00         9         7 muddaub             
# ℹ 29 more rows

Note that the final dataframe (interviews_ch) is the leftmost part of this expression.

6.5 Exercise

Using pipes, subset the interviews data to include interviews where respondents were members of an irrigation association (memb_assoc) and retain only the columns affect_conflicts, liv_count, and no_meals.

Solution (Solution). 

interviews %>%
    filter(memb_assoc == "yes") %>%
    select(affect_conflicts, liv_count, no_meals)

# A tibble: 33 × 3
   affect_conflicts liv_count no_meals
   <chr>                <dbl>    <dbl>
 1 once                     3        2
 2 never                    2        2
 3 never                    2        3
 4 once                     3        2
 5 frequently               1        3
 6 more_once                5        2
 7 more_once                3        2
 8 more_once                2        3
 9 once                     3        3
10 never                    3        3
# ℹ 23 more rows

6.6 Mutate

Frequently you’ll want to create new columns based on the values in existing columns, for example to do unit conversions, or to find the ratio of values in two columns. For this we’ll use mutate().

We might be interested in the ratio of number of household members to rooms used for sleeping (i.e. avg number of people per room):

interviews %>%
    mutate(people_per_room = no_membrs / rooms)

# A tibble: 131 × 15
   key_ID village  interview_date      no_membrs years_liv respondent_wall_type
    <dbl> <chr>    <dttm>                  <dbl>     <dbl> <chr>               
 1      1 God      2016-11-17 00:00:00         3         4 muddaub             
 2      2 God      2016-11-17 00:00:00         7         9 muddaub             
 3      3 God      2016-11-17 00:00:00        10        15 burntbricks         
 4      4 God      2016-11-17 00:00:00         7         6 burntbricks         
 5      5 God      2016-11-17 00:00:00         7        40 burntbricks         
 6      6 God      2016-11-17 00:00:00         3         3 muddaub             
 7      7 God      2016-11-17 00:00:00         6        38 muddaub             
 8      8 Chirodzo 2016-11-16 00:00:00        12        70 burntbricks         
 9      9 Chirodzo 2016-11-16 00:00:00         8         6 burntbricks         
10     10 Chirodzo 2016-12-16 00:00:00        12        23 burntbricks         
# ℹ 121 more rows
# ℹ 9 more variables: rooms <dbl>, memb_assoc <chr>, affect_conflicts <chr>,
#   liv_count <dbl>, items_owned <chr>, no_meals <dbl>, months_lack_food <chr>,
#   instanceID <chr>, people_per_room <dbl>

We may be interested in investigating whether being a member of an irrigation association had any effect on the ratio of household members to rooms. To look at this relationship, we will first remove data from our dataset where the respondent didn’t answer the question of whether they were a member of an irrigation association. These cases are recorded as “NULL” in the dataset.

To remove these cases, we could insert a filter() in the chain:

interviews %>%
    filter(!is.na(memb_assoc)) %>%
    mutate(people_per_room = no_membrs / rooms)

# A tibble: 92 × 15
   key_ID village  interview_date      no_membrs years_liv respondent_wall_type
    <dbl> <chr>    <dttm>                  <dbl>     <dbl> <chr>               
 1      2 God      2016-11-17 00:00:00         7         9 muddaub             
 2      7 God      2016-11-17 00:00:00         6        38 muddaub             
 3      8 Chirodzo 2016-11-16 00:00:00        12        70 burntbricks         
 4      9 Chirodzo 2016-11-16 00:00:00         8         6 burntbricks         
 5     10 Chirodzo 2016-12-16 00:00:00        12        23 burntbricks         
 6     12 God      2016-11-21 00:00:00         7        20 burntbricks         
 7     13 God      2016-11-21 00:00:00         6         8 burntbricks         
 8     15 God      2016-11-21 00:00:00         5        30 sunbricks           
 9     21 God      2016-11-21 00:00:00         8        20 burntbricks         
10     24 Ruaca    2016-11-21 00:00:00         6         4 burntbricks         
# ℹ 82 more rows
# ℹ 9 more variables: rooms <dbl>, memb_assoc <chr>, affect_conflicts <chr>,
#   liv_count <dbl>, items_owned <chr>, no_meals <dbl>, months_lack_food <chr>,
#   instanceID <chr>, people_per_room <dbl>
…
