7 Data Wrangling with tidyr – R Cheatsheets
…
7.5 Exercise

We created some summary tables on interviews_items_owned using count and summarise. We can create the same tables on interviews_long, but this will require a different process.

Make a table showing the number of respondents in each village who owned a particular item, and include all items. The difference between this format and the wide format is that you can now count all the items using the items_owned variable.

Solution (Solution). 

interviews_long %>%
  filter(items_owned_logical) %>% 
  group_by(village) %>% 
  count(items_owned)

# A tibble: 47 × 3
# Groups:   village [3]
   village  items_owned         n
   <chr>    <chr>           <int>
 1 Chirodzo bicycle            17
 2 Chirodzo computer            2
 3 Chirodzo cow_cart            6
 4 Chirodzo cow_plough         20
 5 Chirodzo electricity         1
 6 Chirodzo fridge              1
 7 Chirodzo lorry               1
 8 Chirodzo mobile_phone       25
 9 Chirodzo motorcyle          13
10 Chirodzo no_listed_items     3
# ℹ 37 more rows
…
